%!PS-Adobe-3.0 EPSF-3.0
%%Creator: (MATLAB, The Mathworks, Inc. Version 9.6.0.1472908 \(R2019a\) Update 9. Operating System: Windows 10)
%%Title: (D:/Studium/TU Graz/LVs/WS20-21/Biosignal Processing/UE/Latex/BioSig_Reports/UE04/images/ECG_sig.eps)
%%CreationDate: 2020-11-18T17:26:10
%%Pages: (atend)
%%BoundingBox: 0 0 420 315
%%LanguageLevel: 3
%%EndComments
%%BeginProlog
%%BeginResource: procset (Apache XML Graphics Std ProcSet) 1.2 0
%%Version: 1.2 0
%%Copyright: (Copyright 2001-2003,2010 The Apache Software Foundation. License terms: http://www.apache.org/licenses/LICENSE-2.0)
/bd{bind def}bind def
/ld{load def}bd
/GR/grestore ld
/GS/gsave ld
/RM/rmoveto ld
/C/curveto ld
/t/show ld
/L/lineto ld
/ML/setmiterlimit ld
/CT/concat ld
/f/fill ld
/N/newpath ld
/S/stroke ld
/CC/setcmykcolor ld
/A/ashow ld
/cp/closepath ld
/RC/setrgbcolor ld
/LJ/setlinejoin ld
/GC/setgray ld
/LW/setlinewidth ld
/M/moveto ld
/re {4 2 roll M
1 index 0 rlineto
0 exch rlineto
neg 0 rlineto
cp } bd
/_ctm matrix def
/_tm matrix def
/BT { _ctm currentmatrix pop matrix _tm copy pop 0 0 moveto } bd
/ET { _ctm setmatrix } bd
/iTm { _ctm setmatrix _tm concat } bd
/Tm { _tm astore pop iTm 0 0 moveto } bd
/ux 0.0 def
/uy 0.0 def
/F {
  /Tp exch def
  /Tf exch def
  Tf findfont Tp scalefont setfont
  /cf Tf def  /cs Tp def
} bd
/ULS {currentpoint /uy exch def /ux exch def} bd
/ULE {
  /Tcx currentpoint pop def
  gsave
  newpath
  cf findfont cs scalefont dup
  /FontMatrix get 0 get /Ts exch def /FontInfo get dup
  /UnderlinePosition get Ts mul /To exch def
  /UnderlineThickness get Ts mul /Tt exch def
  ux uy To add moveto  Tcx uy To add lineto
  Tt setlinewidth stroke
  grestore
} bd
/OLE {
  /Tcx currentpoint pop def
  gsave
  newpath
  cf findfont cs scalefont dup
  /FontMatrix get 0 get /Ts exch def /FontInfo get dup
  /UnderlinePosition get Ts mul /To exch def
  /UnderlineThickness get Ts mul /Tt exch def
  ux uy To add cs add moveto Tcx uy To add cs add lineto
  Tt setlinewidth stroke
  grestore
} bd
/SOE {
  /Tcx currentpoint pop def
  gsave
  newpath
  cf findfont cs scalefont dup
  /FontMatrix get 0 get /Ts exch def /FontInfo get dup
  /UnderlinePosition get Ts mul /To exch def
  /UnderlineThickness get Ts mul /Tt exch def
  ux uy To add cs 10 mul 26 idiv add moveto Tcx uy To add cs 10 mul 26 idiv add lineto
  Tt setlinewidth stroke
  grestore
} bd
/QT {
/Y22 exch store
/X22 exch store
/Y21 exch store
/X21 exch store
currentpoint
/Y21 load 2 mul add 3 div exch
/X21 load 2 mul add 3 div exch
/X21 load 2 mul /X22 load add 3 div
/Y21 load 2 mul /Y22 load add 3 div
/X22 load /Y22 load curveto
} bd
/SSPD {
dup length /d exch dict def
{
/v exch def
/k exch def
currentpagedevice k known {
/cpdv currentpagedevice k get def
v cpdv ne {
/upd false def
/nullv v type /nulltype eq def
/nullcpdv cpdv type /nulltype eq def
nullv nullcpdv or
{
/upd true def
} {
/sametype v type cpdv type eq def
sametype {
v type /arraytype eq {
/vlen v length def
/cpdvlen cpdv length def
vlen cpdvlen eq {
0 1 vlen 1 sub {
/i exch def
/obj v i get def
/cpdobj cpdv i get def
obj cpdobj ne {
/upd true def
exit
} if
} for
} {
/upd true def
} ifelse
} {
v type /dicttype eq {
v {
/dv exch def
/dk exch def
/cpddv cpdv dk get def
dv cpddv ne {
/upd true def
exit
} if
} forall
} {
/upd true def
} ifelse
} ifelse
} if
} ifelse
upd true eq {
d k v put
} if
} if
} if
} forall
d length 0 gt {
d setpagedevice
} if
} bd
/RE { % /NewFontName [NewEncodingArray] /FontName RE -
  findfont dup length dict begin
  {
    1 index /FID ne
    {def} {pop pop} ifelse
  } forall
  /Encoding exch def
  /FontName 1 index def
  currentdict definefont pop
  end
} bind def
%%EndResource
%%BeginResource: procset (Apache XML Graphics EPS ProcSet) 1.0 0
%%Version: 1.0 0
%%Copyright: (Copyright 2002-2003 The Apache Software Foundation. License terms: http://www.apache.org/licenses/LICENSE-2.0)
/BeginEPSF { %def
/b4_Inc_state save def         % Save state for cleanup
/dict_count countdictstack def % Count objects on dict stack
/op_count count 1 sub def      % Count objects on operand stack
userdict begin                 % Push userdict on dict stack
/showpage { } def              % Redefine showpage, { } = null proc
0 setgray 0 setlinecap         % Prepare graphics state
1 setlinewidth 0 setlinejoin
10 setmiterlimit [ ] 0 setdash newpath
/languagelevel where           % If level not equal to 1 then
{pop languagelevel             % set strokeadjust and
1 ne                           % overprint to their defaults.
{false setstrokeadjust false setoverprint
} if
} if
} bd
/EndEPSF { %def
count op_count sub {pop} repeat            % Clean up stacks
countdictstack dict_count sub {end} repeat
b4_Inc_state restore
} bd
%%EndResource
%FOPBeginFontDict
%%IncludeResource: font Courier-Oblique
%%IncludeResource: font Courier-BoldOblique
%%IncludeResource: font Courier-Bold
%%IncludeResource: font ZapfDingbats
%%IncludeResource: font Symbol
%%IncludeResource: font Helvetica
%%IncludeResource: font Helvetica-Oblique
%%IncludeResource: font Helvetica-Bold
%%IncludeResource: font Helvetica-BoldOblique
%%IncludeResource: font Times-Roman
%%IncludeResource: font Times-Italic
%%IncludeResource: font Times-Bold
%%IncludeResource: font Times-BoldItalic
%%IncludeResource: font Courier
%FOPEndFontDict
%%BeginResource: encoding WinAnsiEncoding
/WinAnsiEncoding [
/.notdef /.notdef /.notdef /.notdef /.notdef
/.notdef /.notdef /.notdef /.notdef /.notdef
/.notdef /.notdef /.notdef /.notdef /.notdef
/.notdef /.notdef /.notdef /.notdef /.notdef
/.notdef /.notdef /.notdef /.notdef /.notdef
/.notdef /.notdef /.notdef /.notdef /.notdef
/.notdef /.notdef /space /exclam /quotedbl
/numbersign /dollar /percent /ampersand /quotesingle
/parenleft /parenright /asterisk /plus /comma
/hyphen /period /slash /zero /one
/two /three /four /five /six
/seven /eight /nine /colon /semicolon
/less /equal /greater /question /at
/A /B /C /D /E
/F /G /H /I /J
/K /L /M /N /O
/P /Q /R /S /T
/U /V /W /X /Y
/Z /bracketleft /backslash /bracketright /asciicircum
/underscore /quoteleft /a /b /c
/d /e /f /g /h
/i /j /k /l /m
/n /o /p /q /r
/s /t /u /v /w
/x /y /z /braceleft /bar
/braceright /asciitilde /bullet /Euro /bullet
/quotesinglbase /florin /quotedblbase /ellipsis /dagger
/daggerdbl /circumflex /perthousand /Scaron /guilsinglleft
/OE /bullet /Zcaron /bullet /bullet
/quoteleft /quoteright /quotedblleft /quotedblright /bullet
/endash /emdash /asciitilde /trademark /scaron
/guilsinglright /oe /bullet /zcaron /Ydieresis
/space /exclamdown /cent /sterling /currency
/yen /brokenbar /section /dieresis /copyright
/ordfeminine /guillemotleft /logicalnot /sfthyphen /registered
/macron /degree /plusminus /twosuperior /threesuperior
/acute /mu /paragraph /middot /cedilla
/onesuperior /ordmasculine /guillemotright /onequarter /onehalf
/threequarters /questiondown /Agrave /Aacute /Acircumflex
/Atilde /Adieresis /Aring /AE /Ccedilla
/Egrave /Eacute /Ecircumflex /Edieresis /Igrave
/Iacute /Icircumflex /Idieresis /Eth /Ntilde
/Ograve /Oacute /Ocircumflex /Otilde /Odieresis
/multiply /Oslash /Ugrave /Uacute /Ucircumflex
/Udieresis /Yacute /Thorn /germandbls /agrave
/aacute /acircumflex /atilde /adieresis /aring
/ae /ccedilla /egrave /eacute /ecircumflex
/edieresis /igrave /iacute /icircumflex /idieresis
/eth /ntilde /ograve /oacute /ocircumflex
/otilde /odieresis /divide /oslash /ugrave
/uacute /ucircumflex /udieresis /yacute /thorn
/ydieresis
] def
%%EndResource
%FOPBeginFontReencode
/Courier-Oblique findfont
dup length dict begin
  {1 index /FID ne {def} {pop pop} ifelse} forall
  /Encoding WinAnsiEncoding def
  currentdict
end
/Courier-Oblique exch definefont pop
/Courier-BoldOblique findfont
dup length dict begin
  {1 index /FID ne {def} {pop pop} ifelse} forall
  /Encoding WinAnsiEncoding def
  currentdict
end
/Courier-BoldOblique exch definefont pop
/Courier-Bold findfont
dup length dict begin
  {1 index /FID ne {def} {pop pop} ifelse} forall
  /Encoding WinAnsiEncoding def
  currentdict
end
/Courier-Bold exch definefont pop
/Helvetica findfont
dup length dict begin
  {1 index /FID ne {def} {pop pop} ifelse} forall
  /Encoding WinAnsiEncoding def
  currentdict
end
/Helvetica exch definefont pop
/Helvetica-Oblique findfont
dup length dict begin
  {1 index /FID ne {def} {pop pop} ifelse} forall
  /Encoding WinAnsiEncoding def
  currentdict
end
/Helvetica-Oblique exch definefont pop
/Helvetica-Bold findfont
dup length dict begin
  {1 index /FID ne {def} {pop pop} ifelse} forall
  /Encoding WinAnsiEncoding def
  currentdict
end
/Helvetica-Bold exch definefont pop
/Helvetica-BoldOblique findfont
dup length dict begin
  {1 index /FID ne {def} {pop pop} ifelse} forall
  /Encoding WinAnsiEncoding def
  currentdict
end
/Helvetica-BoldOblique exch definefont pop
/Times-Roman findfont
dup length dict begin
  {1 index /FID ne {def} {pop pop} ifelse} forall
  /Encoding WinAnsiEncoding def
  currentdict
end
/Times-Roman exch definefont pop
/Times-Italic findfont
dup length dict begin
  {1 index /FID ne {def} {pop pop} ifelse} forall
  /Encoding WinAnsiEncoding def
  currentdict
end
/Times-Italic exch definefont pop
/Times-Bold findfont
dup length dict begin
  {1 index /FID ne {def} {pop pop} ifelse} forall
  /Encoding WinAnsiEncoding def
  currentdict
end
/Times-Bold exch definefont pop
/Times-BoldItalic findfont
dup length dict begin
  {1 index /FID ne {def} {pop pop} ifelse} forall
  /Encoding WinAnsiEncoding def
  currentdict
end
/Times-BoldItalic exch definefont pop
/Courier findfont
dup length dict begin
  {1 index /FID ne {def} {pop pop} ifelse} forall
  /Encoding WinAnsiEncoding def
  currentdict
end
/Courier exch definefont pop
%FOPEndFontReencode
%%EndProlog
%%Page: 1 1
%%PageBoundingBox: 0 0 420 315
%%BeginPageSetup
[1 0 0 -1 0 315] CT
%%EndPageSetup
GS
[0.6 0 0 0.6 0 0] CT
1 GC
N
0 0 700 525 re
f
GR
GS
[0.6 0 0 0.6 0 0] CT
1 GC
N
0 0 700 525 re
f
GR
GS
[0.6 0 0 0.6 0 0] CT
1 GC
N
91 467 M
634 467 L
634 39 L
91 39 L
cp
f
GR
GS
[0.6 0 0 0.6 0 0] CT
0.873 GC
1 LJ
0.833 LW
N
91 467 M
91 39 L
S
GR
GS
[0.6 0 0 0.6 0 0] CT
0.873 GC
1 LJ
0.833 LW
N
145.33 467 M
145.33 39 L
S
GR
GS
[0.6 0 0 0.6 0 0] CT
0.873 GC
1 LJ
0.833 LW
N
199.66 467 M
199.66 39 L
S
GR
GS
[0.6 0 0 0.6 0 0] CT
0.873 GC
1 LJ
0.833 LW
N
253.991 467 M
253.991 39 L
S
GR
GS
[0.6 0 0 0.6 0 0] CT
0.873 GC
1 LJ
0.833 LW
N
308.321 467 M
308.321 39 L
S
GR
GS
[0.6 0 0 0.6 0 0] CT
0.873 GC
1 LJ
0.833 LW
N
362.651 467 M
362.651 39 L
S
GR
GS
[0.6 0 0 0.6 0 0] CT
0.873 GC
1 LJ
0.833 LW
N
416.981 467 M
416.981 39 L
S
GR
GS
[0.6 0 0 0.6 0 0] CT
0.873 GC
1 LJ
0.833 LW
N
471.311 467 M
471.311 39 L
S
GR
GS
[0.6 0 0 0.6 0 0] CT
0.873 GC
1 LJ
0.833 LW
N
525.641 467 M
525.641 39 L
S
GR
GS
[0.6 0 0 0.6 0 0] CT
0.873 GC
1 LJ
0.833 LW
N
579.972 467 M
579.972 39 L
S
GR
GS
[0.6 0 0 0.6 0 0] CT
0.873 GC
1 LJ
0.833 LW
N
634 443.168 M
91 443.168 L
S
GR
GS
[0.6 0 0 0.6 0 0] CT
0.873 GC
1 LJ
0.833 LW
N
634 395.952 M
91 395.952 L
S
GR
GS
[0.6 0 0 0.6 0 0] CT
0.873 GC
1 LJ
0.833 LW
N
634 348.736 M
91 348.736 L
S
GR
GS
[0.6 0 0 0.6 0 0] CT
0.873 GC
1 LJ
0.833 LW
N
634 301.52 M
91 301.52 L
S
GR
GS
[0.6 0 0 0.6 0 0] CT
0.873 GC
1 LJ
0.833 LW
N
634 254.304 M
91 254.304 L
S
GR
GS
[0.6 0 0 0.6 0 0] CT
0.873 GC
1 LJ
0.833 LW
N
634 207.088 M
91 207.088 L
S
GR
GS
[0.6 0 0 0.6 0 0] CT
0.873 GC
1 LJ
0.833 LW
N
634 159.873 M
91 159.873 L
S
GR
GS
[0.6 0 0 0.6 0 0] CT
0.873 GC
1 LJ
0.833 LW
N
634 112.657 M
91 112.657 L
S
GR
GS
[0.6 0 0 0.6 0 0] CT
0.873 GC
1 LJ
0.833 LW
N
634 65.441 M
91 65.441 L
S
GR
GS
[0.6 0 0 0.6 0 0] CT
0.149 GC
2 setlinecap
1 LJ
0.833 LW
N
91 467 M
634 467 L
S
GR
GS
[0.6 0 0 0.6 0 0] CT
0.149 GC
2 setlinecap
1 LJ
0.833 LW
N
91 39 M
634 39 L
S
GR
GS
[0.6 0 0 0.6 0 0] CT
0.149 GC
2 setlinecap
1 LJ
0.833 LW
N
91 467 M
91 461.57 L
S
GR
GS
[0.6 0 0 0.6 0 0] CT
0.149 GC
2 setlinecap
1 LJ
0.833 LW
N
145.33 467 M
145.33 461.57 L
S
GR
GS
[0.6 0 0 0.6 0 0] CT
0.149 GC
2 setlinecap
1 LJ
0.833 LW
N
199.66 467 M
199.66 461.57 L
S
GR
GS
[0.6 0 0 0.6 0 0] CT
0.149 GC
2 setlinecap
1 LJ
0.833 LW
N
253.991 467 M
253.991 461.57 L
S
GR
GS
[0.6 0 0 0.6 0 0] CT
0.149 GC
2 setlinecap
1 LJ
0.833 LW
N
308.321 467 M
308.321 461.57 L
S
GR
GS
[0.6 0 0 0.6 0 0] CT
0.149 GC
2 setlinecap
1 LJ
0.833 LW
N
362.651 467 M
362.651 461.57 L
S
GR
GS
[0.6 0 0 0.6 0 0] CT
0.149 GC
2 setlinecap
1 LJ
0.833 LW
N
416.981 467 M
416.981 461.57 L
S
GR
GS
[0.6 0 0 0.6 0 0] CT
0.149 GC
2 setlinecap
1 LJ
0.833 LW
N
471.311 467 M
471.311 461.57 L
S
GR
GS
[0.6 0 0 0.6 0 0] CT
0.149 GC
2 setlinecap
1 LJ
0.833 LW
N
525.641 467 M
525.641 461.57 L
S
GR
GS
[0.6 0 0 0.6 0 0] CT
0.149 GC
2 setlinecap
1 LJ
0.833 LW
N
579.972 467 M
579.972 461.57 L
S
GR
GS
[0.6 0 0 0.6 0 0] CT
0.149 GC
2 setlinecap
1 LJ
0.833 LW
N
91 39 M
91 44.43 L
S
GR
GS
[0.6 0 0 0.6 0 0] CT
0.149 GC
2 setlinecap
1 LJ
0.833 LW
N
145.33 39 M
145.33 44.43 L
S
GR
GS
[0.6 0 0 0.6 0 0] CT
0.149 GC
2 setlinecap
1 LJ
0.833 LW
N
199.66 39 M
199.66 44.43 L
S
GR
GS
[0.6 0 0 0.6 0 0] CT
0.149 GC
2 setlinecap
1 LJ
0.833 LW
N
253.991 39 M
253.991 44.43 L
S
GR
GS
[0.6 0 0 0.6 0 0] CT
0.149 GC
2 setlinecap
1 LJ
0.833 LW
N
308.321 39 M
308.321 44.43 L
S
GR
GS
[0.6 0 0 0.6 0 0] CT
0.149 GC
2 setlinecap
1 LJ
0.833 LW
N
362.651 39 M
362.651 44.43 L
S
GR
GS
[0.6 0 0 0.6 0 0] CT
0.149 GC
2 setlinecap
1 LJ
0.833 LW
N
416.981 39 M
416.981 44.43 L
S
GR
GS
[0.6 0 0 0.6 0 0] CT
0.149 GC
2 setlinecap
1 LJ
0.833 LW
N
471.311 39 M
471.311 44.43 L
S
GR
GS
[0.6 0 0 0.6 0 0] CT
0.149 GC
2 setlinecap
1 LJ
0.833 LW
N
525.641 39 M
525.641 44.43 L
S
GR
GS
[0.6 0 0 0.6 0 0] CT
0.149 GC
2 setlinecap
1 LJ
0.833 LW
N
579.972 39 M
579.972 44.43 L
S
GR
GS
[0.6 0 0 0.6 54.6 284.19999] CT
0.149 GC
/Helvetica 16.667 F
GS
[1 0 0 1 0 0] CT
-5 17 moveto 
1 -1 scale
(0) t 
GR
GR
GS
[0.6 0 0 0.6 87.19811 284.19999] CT
0.149 GC
/Helvetica 16.667 F
GS
[1 0 0 1 0 0] CT
-12 17 moveto 
1 -1 scale
(0.5) t 
GR
GR
GS
[0.6 0 0 0.6 119.79622 284.19999] CT
0.149 GC
/Helvetica 16.667 F
GS
[1 0 0 1 0 0] CT
-5 17 moveto 
1 -1 scale
(1) t 
GR
GR
GS
[0.6 0 0 0.6 152.39433 284.19999] CT
0.149 GC
/Helvetica 16.667 F
GS
[1 0 0 1 0 0] CT
-12 17 moveto 
1 -1 scale
(1.5) t 
GR
GR
GS
[0.6 0 0 0.6 184.99244 284.19999] CT
0.149 GC
/Helvetica 16.667 F
GS
[1 0 0 1 0 0] CT
-5 17 moveto 
1 -1 scale
(2) t 
GR
GR
GS
[0.6 0 0 0.6 217.59055 284.19999] CT
0.149 GC
/Helvetica 16.667 F
GS
[1 0 0 1 0 0] CT
-12 17 moveto 
1 -1 scale
(2.5) t 
GR
GR
GS
[0.6 0 0 0.6 250.18867 284.19999] CT
0.149 GC
/Helvetica 16.667 F
GS
[1 0 0 1 0 0] CT
-5 17 moveto 
1 -1 scale
(3) t 
GR
GR
GS
[0.6 0 0 0.6 282.78677 284.19999] CT
0.149 GC
/Helvetica 16.667 F
GS
[1 0 0 1 0 0] CT
-12 17 moveto 
1 -1 scale
(3.5) t 
GR
GR
GS
[0.6 0 0 0.6 315.38489 284.19999] CT
0.149 GC
/Helvetica 16.667 F
GS
[1 0 0 1 0 0] CT
-5 17 moveto 
1 -1 scale
(4) t 
GR
GR
GS
[0.6 0 0 0.6 347.98301 284.19999] CT
0.149 GC
/Helvetica 16.667 F
GS
[1 0 0 1 0 0] CT
-12 17 moveto 
1 -1 scale
(4.5) t 
GR
GR
GS
[0.6 0 0 0.6 217.50016 297.80002] CT
0.149 GC
/Helvetica 18.333 F
GS
[1 0 0 1 0 0] CT
-67 19 moveto 
1 -1 scale
(Time in seconds) t 
GR
GR
GS
[0.6 0 0 0.6 0 0] CT
0.149 GC
2 setlinecap
1 LJ
0.833 LW
N
91 467 M
91 39 L
S
GR
GS
[0.6 0 0 0.6 0 0] CT
0.149 GC
2 setlinecap
1 LJ
0.833 LW
N
634 467 M
634 39 L
S
GR
GS
[0.6 0 0 0.6 0 0] CT
0.149 GC
2 setlinecap
1 LJ
0.833 LW
N
91 443.168 M
96.43 443.168 L
S
GR
GS
[0.6 0 0 0.6 0 0] CT
0.149 GC
2 setlinecap
1 LJ
0.833 LW
N
91 395.952 M
96.43 395.952 L
S
GR
GS
[0.6 0 0 0.6 0 0] CT
0.149 GC
2 setlinecap
1 LJ
0.833 LW
N
91 348.736 M
96.43 348.736 L
S
GR
GS
[0.6 0 0 0.6 0 0] CT
0.149 GC
2 setlinecap
1 LJ
0.833 LW
N
91 301.52 M
96.43 301.52 L
S
GR
GS
[0.6 0 0 0.6 0 0] CT
0.149 GC
2 setlinecap
1 LJ
0.833 LW
N
91 254.304 M
96.43 254.304 L
S
GR
GS
[0.6 0 0 0.6 0 0] CT
0.149 GC
2 setlinecap
1 LJ
0.833 LW
N
91 207.088 M
96.43 207.088 L
S
GR
GS
[0.6 0 0 0.6 0 0] CT
0.149 GC
2 setlinecap
1 LJ
0.833 LW
N
91 159.873 M
96.43 159.873 L
S
GR
GS
[0.6 0 0 0.6 0 0] CT
0.149 GC
2 setlinecap
1 LJ
0.833 LW
N
91 112.657 M
96.43 112.657 L
S
GR
GS
[0.6 0 0 0.6 0 0] CT
0.149 GC
2 setlinecap
1 LJ
0.833 LW
N
91 65.441 M
96.43 65.441 L
S
GR
GS
[0.6 0 0 0.6 0 0] CT
0.149 GC
2 setlinecap
1 LJ
0.833 LW
N
634 443.168 M
628.57 443.168 L
S
GR
GS
[0.6 0 0 0.6 0 0] CT
0.149 GC
2 setlinecap
1 LJ
0.833 LW
N
634 395.952 M
628.57 395.952 L
S
GR
GS
[0.6 0 0 0.6 0 0] CT
0.149 GC
2 setlinecap
1 LJ
0.833 LW
N
634 348.736 M
628.57 348.736 L
S
GR
GS
[0.6 0 0 0.6 0 0] CT
0.149 GC
2 setlinecap
1 LJ
0.833 LW
N
634 301.52 M
628.57 301.52 L
S
GR
GS
[0.6 0 0 0.6 0 0] CT
0.149 GC
2 setlinecap
1 LJ
0.833 LW
N
634 254.304 M
628.57 254.304 L
S
GR
GS
[0.6 0 0 0.6 0 0] CT
0.149 GC
2 setlinecap
1 LJ
0.833 LW
N
634 207.088 M
628.57 207.088 L
S
GR
GS
[0.6 0 0 0.6 0 0] CT
0.149 GC
2 setlinecap
1 LJ
0.833 LW
N
634 159.873 M
628.57 159.873 L
S
GR
GS
[0.6 0 0 0.6 0 0] CT
0.149 GC
2 setlinecap
1 LJ
0.833 LW
N
634 112.657 M
628.57 112.657 L
S
GR
GS
[0.6 0 0 0.6 0 0] CT
0.149 GC
2 setlinecap
1 LJ
0.833 LW
N
634 65.441 M
628.57 65.441 L
S
GR
GS
[0.6 0 0 0.6 50.6 265.90062] CT
0.149 GC
/Helvetica 16.667 F
GS
[1 0 0 1 0 0] CT
-24 6.5 moveto 
1 -1 scale
(9.6) t 
GR
GR
GS
[0.6 0 0 0.6 50.6 237.57112] CT
0.149 GC
/Helvetica 16.667 F
GS
[1 0 0 1 0 0] CT
-24 6.5 moveto 
1 -1 scale
(9.8) t 
GR
GR
GS
[0.6 0 0 0.6 50.6 209.24163] CT
0.149 GC
/Helvetica 16.667 F
GS
[1 0 0 1 0 0] CT
-19 6.5 moveto 
1 -1 scale
(10) t 
GR
GR
GS
[0.6 0 0 0.6 50.6 180.91214] CT
0.149 GC
/Helvetica 16.667 F
GS
[1 0 0 1 0 0] CT
-33 6.5 moveto 
1 -1 scale
(10.2) t 
GR
GR
GS
[0.6 0 0 0.6 50.6 152.58266] CT
0.149 GC
/Helvetica 16.667 F
GS
[1 0 0 1 0 0] CT
-33 6.5 moveto 
1 -1 scale
(10.4) t 
GR
GR
GS
[0.6 0 0 0.6 50.6 124.25303] CT
0.149 GC
/Helvetica 16.667 F
GS
[1 0 0 1 0 0] CT
-33 6.5 moveto 
1 -1 scale
(10.6) t 
GR
GR
GS
[0.6 0 0 0.6 50.6 95.92354] CT
0.149 GC
/Helvetica 16.667 F
GS
[1 0 0 1 0 0] CT
-33 6.5 moveto 
1 -1 scale
(10.8) t 
GR
GR
GS
[0.6 0 0 0.6 50.6 67.59405] CT
0.149 GC
/Helvetica 16.667 F
GS
[1 0 0 1 0 0] CT
-19 6.5 moveto 
1 -1 scale
(11) t 
GR
GR
GS
[0.6 0 0 0.6 50.6 39.26456] CT
0.149 GC
/Helvetica 16.667 F
GS
[1 0 0 1 0 0] CT
-33 6.5 moveto 
1 -1 scale
(11.2) t 
GR
GR
GS
[0 -0.6 0.6 0 27.8 151.79984] CT
0.149 GC
/Helvetica 18.333 F
GS
[1 0 0 1 0 0] CT
-67 -5 moveto 
1 -1 scale
(Amplitude in mV) t 
GR
GR
GS
[0.6 0 0 0.6 217.5002 21.75003] CT
/Helvetica-Bold 18.333 F
GS
[1 0 0 1 0 0] CT
-49 -5 moveto 
1 -1 scale
(ECG signal) t 
GR
GR
GS
[0.6 0 0 0.6 0 0] CT
0 0.447 0.741 RC
1 LJ
0.833 LW
N
91 326.308 M
91.302 326.308 L
91.604 326.308 L
91.906 326.308 L
92.207 326.308 L
92.509 326.308 L
92.811 326.308 L
93.113 326.308 L
93.415 320.407 L
93.717 323.948 L
94.018 326.308 L
94.32 327.489 L
94.622 329.85 L
94.924 328.669 L
95.226 329.85 L
95.528 333.391 L
95.829 334.571 L
96.131 335.752 L
96.433 332.211 L
96.735 328.669 L
97.037 333.391 L
97.339 334.571 L
97.64 336.932 L
97.942 334.571 L
98.244 328.669 L
98.546 323.948 L
98.848 328.669 L
99.15 336.932 L
99.451 340.473 L
99.753 347.556 L
100.055 345.195 L
100.357 349.917 L
100.659 351.097 L
100.961 353.458 L
101.262 356.999 L
101.564 356.999 L
101.866 356.999 L
102.168 354.638 L
102.47 352.277 L
102.772 354.638 L
103.073 356.999 L
103.375 360.54 L
103.677 360.54 L
103.979 360.54 L
104.281 360.54 L
104.583 359.36 L
104.884 361.72 L
105.186 364.081 L
105.488 359.36 L
105.79 356.999 L
106.092 356.999 L
106.394 358.179 L
106.695 359.36 L
106.997 364.081 L
107.299 360.54 L
107.601 362.901 L
107.903 358.179 L
108.205 360.54 L
108.506 362.901 L
108.808 366.442 L
109.11 367.622 L
109.412 371.164 L
109.714 377.066 L
110.016 382.968 L
110.317 382.968 L
110.619 387.689 L
110.921 399.493 L
111.223 406.575 L
111.525 406.575 L
111.827 392.411 L
112.128 369.983 L
112.43 344.014 L
112.732 308.603 L
113.034 263.748 L
113.336 203.547 L
113.638 145.708 L
113.939 107.935 L
114.241 93.77 L
114.543 111.476 L
114.845 169.316 L
115.147 251.944 L
115.449 331.03 L
115.75 378.246 L
116.052 394.771 L
116.354 392.411 L
116.656 379.426 L
116.958 369.983 L
117.26 368.803 L
117.561 371.164 L
117.863 373.524 L
118.165 369.983 L
118.467 368.803 L
118.769 366.442 L
119.071 365.262 L
119.372 367.622 L
119.674 371.164 L
119.976 372.344 L
120.278 368.803 L
120.58 373.524 L
120.882 371.164 L
121.183 369.983 L
121.485 371.164 L
121.787 369.983 L
122.089 368.803 L
122.391 369.983 L
122.693 369.983 L
122.994 373.524 L
123.296 375.885 L
123.598 371.164 L
123.9 368.803 L
124.202 364.081 L
124.504 367.622 L
124.805 367.622 L
125.107 369.983 L
125.409 372.344 L
125.711 371.164 L
126.013 372.344 L
126.315 373.524 L
126.616 375.885 L
126.918 375.885 L
127.22 372.344 L
127.522 369.983 L
127.824 369.983 L
128.126 369.983 L
128.427 372.344 L
128.729 374.705 L
129.031 368.803 L
129.333 368.803 L
129.635 369.983 L
129.937 369.983 L
130.238 371.164 L
130.54 371.164 L
130.842 372.344 L
131.144 369.983 L
131.446 372.344 L
131.748 374.705 L
132.049 375.885 L
132.351 374.705 L
132.653 373.524 L
132.955 369.983 L
133.257 367.622 L
133.559 371.164 L
133.86 369.983 L
134.162 373.524 L
134.464 369.983 L
134.766 371.164 L
135.068 371.164 L
135.37 373.524 L
135.671 373.524 L
135.973 375.885 L
136.275 372.344 L
136.577 372.344 L
136.879 371.164 L
137.181 369.983 L
137.482 374.705 L
137.784 374.705 L
138.086 373.524 L
138.388 371.164 L
138.69 371.164 L
138.992 371.164 L
139.294 374.705 L
139.595 375.885 L
139.897 375.885 L
140.199 373.524 L
140.501 373.524 L
140.803 371.164 L
141.105 374.705 L
141.406 377.066 L
141.708 377.066 L
142.01 377.066 L
142.312 378.246 L
142.614 377.066 L
142.916 379.426 L
143.217 382.968 L
143.519 379.426 L
143.821 377.066 L
144.123 375.885 L
144.425 377.066 L
144.727 380.607 L
145.028 380.607 L
145.33 378.246 L
145.632 378.246 L
145.934 377.066 L
146.236 377.066 L
146.538 378.246 L
146.839 379.426 L
147.141 375.885 L
147.443 369.983 L
147.745 368.803 L
148.047 368.803 L
148.349 371.164 L
148.65 372.344 L
148.952 366.442 L
149.254 362.901 L
149.556 362.901 L
149.858 360.54 L
150.16 361.72 L
150.461 360.54 L
150.763 359.36 L
151.065 356.999 L
151.367 352.277 L
151.669 351.097 L
151.971 351.097 L
152.272 354.638 L
152.574 352.277 L
152.876 349.917 L
153.178 346.375 L
153.48 349.917 L
153.782 349.917 L
154.083 352.277 L
154.385 352.277 L
154.687 348.736 L
154.989 351.097 L
155.291 352.277 L
155.593 349.917 L
155.894 352.277 L
156.196 351.097 L
156.498 351.097 L
156.8 354.638 L
157.102 353.458 L
157.404 353.458 L
157.705 354.638 L
158.007 355.818 L
158.309 354.638 L
158.611 353.458 L
158.913 356.999 L
159.215 358.179 L
159.516 360.54 L
159.818 356.999 L
160.12 355.818 L
160.422 353.458 L
160.724 358.179 L
161.026 358.179 L
161.327 359.36 L
161.629 356.999 L
161.931 356.999 L
162.233 354.638 L
162.535 355.818 L
162.837 359.36 L
163.138 360.54 L
163.44 358.179 L
163.742 356.999 L
164.044 359.36 L
164.346 358.179 L
164.648 362.901 L
164.949 362.901 L
165.251 364.081 L
165.553 361.72 L
165.855 362.901 L
166.157 365.262 L
166.459 365.262 L
166.76 364.081 L
167.062 361.72 L
167.364 359.36 L
167.666 359.36 L
167.968 360.54 L
168.27 361.72 L
168.571 365.262 L
168.873 360.54 L
169.175 361.72 L
169.477 362.901 L
169.779 364.081 L
170.081 365.262 L
170.382 368.803 L
170.684 365.262 L
170.986 362.901 L
171.288 360.54 L
171.59 365.262 L
171.892 368.803 L
172.193 369.983 L
172.495 366.442 L
172.797 362.901 L
173.099 364.081 L
173.401 365.262 L
173.703 367.622 L
174.004 369.983 L
174.306 368.803 L
174.608 366.442 L
174.91 365.262 L
175.212 364.081 L
175.514 364.081 L
175.815 365.262 L
176.117 362.901 L
176.419 364.081 L
176.721 360.54 L
177.023 362.901 L
177.325 362.901 L
177.626 364.081 L
177.928 364.081 L
178.23 360.54 L
178.532 358.179 L
178.834 361.72 L
179.136 364.081 L
179.437 366.442 L
179.739 364.081 L
180.041 361.72 L
180.343 360.54 L
180.645 358.179 L
180.947 355.818 L
181.248 356.999 L
181.55 356.999 L
181.852 355.818 L
182.154 351.097 L
182.456 351.097 L
182.758 352.277 L
183.059 345.195 L
183.361 344.014 L
183.663 340.473 L
183.965 339.293 L
184.267 340.473 L
184.569 342.834 L
184.87 346.375 L
185.172 344.014 L
185.474 345.195 L
185.776 345.195 L
186.078 345.195 L
186.38 346.375 L
186.681 347.556 L
186.983 348.736 L
187.285 347.556 L
187.587 344.014 L
187.889 341.654 L
188.191 340.473 L
188.492 349.917 L
188.794 359.36 L
189.096 359.36 L
189.398 362.901 L
189.7 365.262 L
190.002 369.983 L
190.303 369.983 L
190.605 368.803 L
190.907 366.442 L
191.209 367.622 L
191.511 366.442 L
191.813 368.803 L
192.115 372.344 L
192.416 373.524 L
192.718 372.344 L
193.02 372.344 L
193.322 374.705 L
193.624 373.524 L
193.926 375.885 L
194.227 369.983 L
194.529 371.164 L
194.831 369.983 L
195.133 367.622 L
195.435 373.524 L
195.737 375.885 L
196.038 372.344 L
196.34 369.983 L
196.642 368.803 L
196.944 369.983 L
197.246 374.705 L
197.548 378.246 L
197.849 377.066 L
198.151 381.787 L
198.453 392.411 L
198.755 397.132 L
199.057 404.215 L
199.359 412.478 L
199.66 418.379 L
199.962 411.297 L
200.264 390.05 L
200.566 362.901 L
200.868 329.85 L
201.17 295.618 L
201.471 236.598 L
201.773 176.398 L
202.075 122.1 L
202.377 85.508 L
202.679 70.162 L
202.981 78.425 L
203.282 113.837 L
203.584 176.398 L
203.886 253.124 L
204.188 318.046 L
204.49 355.818 L
204.792 384.148 L
205.093 398.313 L
205.395 404.215 L
205.697 399.493 L
205.999 392.411 L
206.301 384.148 L
206.603 384.148 L
206.904 382.968 L
207.206 384.148 L
207.508 381.787 L
207.81 381.787 L
208.112 381.787 L
208.414 385.328 L
208.715 382.968 L
209.017 382.968 L
209.319 382.968 L
209.621 380.607 L
209.923 385.328 L
210.225 388.87 L
210.526 388.87 L
210.828 386.509 L
211.13 385.328 L
211.432 384.148 L
211.734 387.689 L
212.036 385.328 L
212.337 382.968 L
212.639 380.607 L
212.941 384.148 L
213.243 384.148 L
213.545 387.689 L
213.847 388.87 L
214.148 388.87 L
214.45 384.148 L
214.752 384.148 L
215.054 385.328 L
215.356 387.689 L
215.658 390.05 L
215.959 386.509 L
216.261 388.87 L
216.563 387.689 L
216.865 388.87 L
217.167 390.05 L
217.469 388.87 L
217.77 386.509 L
218.072 386.509 L
218.374 385.328 L
218.676 384.148 L
218.978 387.689 L
219.28 388.87 L
219.581 384.148 L
219.883 384.148 L
220.185 382.968 L
220.487 382.968 L
220.789 388.87 L
221.091 387.689 L
221.392 385.328 L
221.694 384.148 L
221.996 380.607 L
222.298 384.148 L
222.6 385.328 L
222.902 388.87 L
223.203 386.509 L
223.505 384.148 L
223.807 384.148 L
224.109 382.968 L
224.411 387.689 L
224.713 390.05 L
225.014 390.05 L
225.316 386.509 L
225.618 385.328 L
225.92 387.689 L
226.222 390.05 L
226.524 391.23 L
226.825 391.23 L
227.127 388.87 L
227.429 390.05 L
227.731 392.411 L
228.033 391.23 L
228.335 394.771 L
228.636 393.591 L
228.938 393.591 L
229.24 391.23 L
229.542 393.591 L
229.844 398.313 L
230.146 399.493 L
230.447 398.313 L
230.749 394.771 L
231.051 397.132 L
231.353 398.313 L
231.655 399.493 L
231.957 403.034 L
232.258 400.674 L
232.56 399.493 L
232.862 398.313 L
233.164 399.493 L
233.466 403.034 L
233.768 404.215 L
234.069 400.674 L
234.371 398.313 L
234.673 397.132 L
234.975 395.952 L
235.277 394.771 L
235.579 395.952 L
235.88 388.87 L
236.182 385.328 L
236.484 379.426 L
236.786 378.246 L
237.088 377.066 L
237.39 378.246 L
237.691 372.344 L
237.993 368.803 L
238.295 366.442 L
238.597 367.622 L
238.899 369.983 L
239.201 369.983 L
239.503 367.622 L
239.804 365.262 L
240.106 362.901 L
240.408 362.901 L
240.71 367.622 L
241.012 367.622 L
241.314 366.442 L
241.615 364.081 L
241.917 364.081 L
242.219 361.72 L
242.521 367.622 L
242.823 369.983 L
243.125 364.081 L
243.426 365.262 L
243.728 362.901 L
244.03 362.901 L
244.332 367.622 L
244.634 368.803 L
244.936 365.262 L
245.237 364.081 L
245.539 366.442 L
245.841 364.081 L
246.143 366.442 L
246.445 366.442 L
246.747 365.262 L
247.048 361.72 L
247.35 360.54 L
247.652 364.081 L
247.954 365.262 L
248.256 367.622 L
248.558 366.442 L
248.859 362.901 L
249.161 366.442 L
249.463 366.442 L
249.765 366.442 L
250.067 369.983 L
250.369 366.442 L
250.67 367.622 L
250.972 366.442 L
251.274 368.803 L
251.576 371.164 L
251.878 372.344 L
252.18 371.164 L
252.481 371.164 L
252.783 369.983 L
253.085 368.803 L
253.387 373.524 L
253.689 374.705 L
253.991 373.524 L
254.292 371.164 L
254.594 369.983 L
254.896 369.983 L
255.198 373.524 L
255.5 373.524 L
255.802 373.524 L
256.103 367.622 L
256.405 369.983 L
256.707 371.164 L
257.009 372.344 L
257.311 375.885 L
257.613 371.164 L
257.914 369.983 L
258.216 369.983 L
258.518 371.164 L
258.82 375.885 L
259.122 377.066 L
259.424 375.885 L
259.725 374.705 L
260.027 372.344 L
260.329 373.524 L
260.631 373.524 L
260.933 373.524 L
261.235 373.524 L
261.536 369.983 L
261.838 369.983 L
262.14 371.164 L
262.442 373.524 L
262.744 374.705 L
263.046 374.705 L
263.347 372.344 L
263.649 369.983 L
263.951 373.524 L
264.253 373.524 L
264.555 375.885 L
264.857 374.705 L
265.158 372.344 L
265.46 369.983 L
265.762 372.344 L
266.064 372.344 L
266.366 372.344 L
266.668 369.983 L
266.969 371.164 L
267.271 369.983 L
267.573 371.164 L
267.875 373.524 L
268.177 373.524 L
268.479 372.344 L
268.78 369.983 L
269.082 366.442 L
269.384 361.72 L
269.686 362.901 L
269.988 361.72 L
270.29 359.36 L
270.591 356.999 L
270.893 354.638 L
271.195 354.638 L
271.497 354.638 L
271.799 352.277 L
272.101 351.097 L
272.402 348.736 L
272.704 345.195 L
273.006 342.834 L
273.308 348.736 L
273.61 349.917 L
273.912 348.736 L
274.213 349.917 L
274.515 347.556 L
274.817 349.917 L
275.119 351.097 L
275.421 356.999 L
275.723 356.999 L
276.024 354.638 L
276.326 351.097 L
276.628 345.195 L
276.93 344.014 L
277.232 346.375 L
277.534 354.638 L
277.835 355.818 L
278.137 358.179 L
278.439 359.36 L
278.741 364.081 L
279.043 367.622 L
279.345 372.344 L
279.646 369.983 L
279.948 371.164 L
280.25 371.164 L
280.552 375.885 L
280.854 379.426 L
281.156 377.066 L
281.457 373.524 L
281.759 374.705 L
282.061 375.885 L
282.363 378.246 L
282.665 380.607 L
282.967 381.787 L
283.268 379.426 L
283.57 378.246 L
283.872 378.246 L
284.174 381.787 L
284.476 382.968 L
284.778 381.787 L
285.079 380.607 L
285.381 375.885 L
285.683 379.426 L
285.985 384.148 L
286.287 387.689 L
286.589 388.87 L
286.891 394.771 L
287.192 401.854 L
287.494 407.756 L
287.796 414.838 L
288.098 423.101 L
288.4 426.642 L
288.702 416.019 L
289.003 387.689 L
289.305 351.097 L
289.607 313.324 L
289.909 263.748 L
290.211 195.285 L
290.513 129.182 L
290.814 83.147 L
291.116 65.441 L
291.418 91.41 L
291.72 169.316 L
292.022 280.273 L
292.324 367.622 L
292.625 410.117 L
292.927 411.297 L
293.229 397.132 L
293.531 390.05 L
293.833 385.328 L
294.135 384.148 L
294.436 385.328 L
294.738 384.148 L
295.04 385.328 L
295.342 387.689 L
295.644 385.328 L
295.946 387.689 L
296.247 384.148 L
296.549 385.328 L
296.851 385.328 L
297.153 388.87 L
297.455 387.689 L
297.757 386.509 L
298.058 386.509 L
298.36 390.05 L
298.662 387.689 L
298.964 391.23 L
299.266 390.05 L
299.568 387.689 L
299.869 387.689 L
300.171 391.23 L
300.473 391.23 L
300.775 394.771 L
301.077 391.23 L
301.379 388.87 L
301.68 388.87 L
301.982 387.689 L
302.284 392.411 L
302.586 393.591 L
302.888 391.23 L
303.19 390.05 L
303.491 388.87 L
303.793 388.87 L
304.095 392.411 L
304.397 391.23 L
304.699 386.509 L
305.001 385.328 L
305.302 386.509 L
305.604 386.509 L
305.906 385.328 L
306.208 390.05 L
306.51 387.689 L
306.812 384.148 L
307.113 386.509 L
307.415 386.509 L
307.717 390.05 L
308.019 392.411 L
308.321 392.411 L
308.623 390.05 L
308.924 390.05 L
309.226 388.87 L
309.528 392.411 L
309.83 392.411 L
310.132 391.23 L
310.434 390.05 L
310.735 386.509 L
311.037 386.509 L
311.339 388.87 L
311.641 392.411 L
311.943 388.87 L
312.245 387.689 L
312.546 385.328 L
312.848 386.509 L
313.15 386.509 L
313.452 387.689 L
313.754 382.968 L
314.056 386.509 L
314.357 384.148 L
314.659 384.148 L
314.961 386.509 L
315.263 390.05 L
315.565 387.689 L
315.867 387.689 L
316.168 388.87 L
316.47 390.05 L
316.772 391.23 L
317.074 391.23 L
317.376 392.411 L
317.678 390.05 L
317.979 390.05 L
318.281 388.87 L
318.583 394.771 L
318.885 393.591 L
319.187 394.771 L
319.489 391.23 L
319.79 391.23 L
320.092 391.23 L
320.394 391.23 L
320.696 392.411 L
320.998 392.411 L
321.3 390.05 L
321.601 385.328 L
321.903 385.328 L
322.205 384.148 L
322.507 380.607 L
322.809 377.066 L
323.111 372.344 L
323.412 371.164 L
323.714 369.983 L
324.016 371.164 L
324.318 371.164 L
324.62 368.803 L
324.922 367.622 L
325.223 364.081 L
325.525 364.081 L
325.827 366.442 L
326.129 365.262 L
326.431 364.081 L
326.733 362.901 L
327.034 362.901 L
327.336 362.901 L
327.638 365.262 L
327.94 365.262 L
328.242 365.262 L
328.544 366.442 L
328.845 362.901 L
329.147 364.081 L
329.449 366.442 L
329.751 367.622 L
330.053 368.803 L
330.355 365.262 L
330.656 364.081 L
330.958 364.081 L
331.26 367.622 L
331.562 368.803 L
331.864 364.081 L
332.166 365.262 L
332.467 361.72 L
332.769 365.262 L
333.071 368.803 L
333.373 369.983 L
333.675 367.622 L
333.977 367.622 L
334.279 367.622 L
334.58 368.803 L
334.882 374.705 L
335.184 374.705 L
335.486 372.344 L
335.788 371.164 L
336.09 369.983 L
336.391 371.164 L
336.693 372.344 L
336.995 377.066 L
337.297 374.705 L
337.599 374.705 L
337.901 375.885 L
338.202 377.066 L
338.504 375.885 L
338.806 378.246 L
339.108 375.885 L
339.41 374.705 L
339.712 372.344 L
340.013 375.885 L
340.315 374.705 L
340.617 378.246 L
340.919 378.246 L
341.221 374.705 L
341.523 375.885 L
341.824 374.705 L
342.126 379.426 L
342.428 381.787 L
342.73 379.426 L
343.032 377.066 L
343.334 378.246 L
343.635 377.066 L
343.937 378.246 L
344.239 381.787 L
344.541 379.426 L
344.843 378.246 L
345.145 374.705 L
345.446 374.705 L
345.748 374.705 L
346.05 379.426 L
346.352 378.246 L
346.654 373.524 L
346.956 373.524 L
347.257 372.344 L
347.559 375.885 L
347.861 378.246 L
348.163 377.066 L
348.465 375.885 L
348.767 375.885 L
349.068 375.885 L
349.37 380.607 L
349.672 382.968 L
349.974 375.885 L
350.276 377.066 L
350.578 375.885 L
350.879 377.066 L
351.181 377.066 L
351.483 379.426 L
351.785 377.066 L
352.087 373.524 L
352.389 375.885 L
352.69 373.524 L
352.992 373.524 L
353.294 373.524 L
353.596 372.344 L
353.898 365.262 L
354.2 364.081 L
354.501 364.081 L
354.803 365.262 L
355.105 364.081 L
355.407 360.54 L
355.709 359.36 L
356.011 356.999 L
356.312 358.179 L
356.614 358.179 L
356.916 356.999 L
357.218 354.638 L
357.52 352.277 L
357.822 349.917 L
358.123 353.458 L
358.425 354.638 L
358.727 356.999 L
359.029 358.179 L
359.331 354.638 L
359.633 355.818 L
359.934 356.999 L
360.236 358.179 L
360.538 356.999 L
360.84 358.179 L
361.142 356.999 L
361.444 354.638 L
361.745 352.277 L
362.047 348.736 L
362.349 353.458 L
362.651 358.179 L
362.953 365.262 L
363.255 365.262 L
363.556 373.524 L
363.858 377.066 L
364.16 381.787 L
364.462 382.968 L
364.764 381.787 L
365.066 379.426 L
365.367 380.607 L
365.669 382.968 L
365.971 384.148 L
366.273 385.328 L
366.575 382.968 L
366.877 382.968 L
367.178 382.968 L
367.48 385.328 L
367.782 387.689 L
368.084 386.509 L
368.386 380.607 L
368.688 380.607 L
368.989 384.148 L
369.291 385.328 L
369.593 390.05 L
369.895 387.689 L
370.197 386.509 L
370.499 384.148 L
370.8 387.689 L
371.102 392.411 L
371.404 400.674 L
371.706 404.215 L
372.008 411.297 L
372.31 412.478 L
372.611 416.019 L
372.913 419.56 L
373.215 433.725 L
373.517 444.348 L
373.819 440.807 L
374.121 427.823 L
374.422 408.936 L
374.724 382.968 L
375.026 355.818 L
375.328 319.226 L
375.63 270.83 L
375.932 204.728 L
376.233 142.167 L
376.535 100.853 L
376.837 89.049 L
377.139 110.296 L
377.441 179.939 L
377.743 276.732 L
378.044 364.081 L
378.346 410.117 L
378.648 414.838 L
378.95 404.215 L
379.252 388.87 L
379.554 384.148 L
379.855 384.148 L
380.157 386.509 L
380.459 388.87 L
380.761 387.689 L
381.063 382.968 L
381.365 384.148 L
381.666 385.328 L
381.968 387.689 L
382.27 388.87 L
382.572 387.689 L
382.874 386.509 L
383.176 384.148 L
383.477 385.328 L
383.779 388.87 L
384.081 390.05 L
384.383 388.87 L
384.685 385.328 L
384.987 387.689 L
385.288 388.87 L
385.59 387.689 L
385.892 387.689 L
386.194 388.87 L
386.496 384.148 L
386.798 382.968 L
387.099 384.148 L
387.401 385.328 L
387.703 386.509 L
388.005 386.509 L
388.307 386.509 L
388.609 385.328 L
388.91 385.328 L
389.212 387.689 L
389.514 387.689 L
389.816 386.509 L
390.118 385.328 L
390.42 382.968 L
390.722 380.607 L
391.023 382.968 L
391.325 385.328 L
391.627 384.148 L
391.929 382.968 L
392.231 380.607 L
392.533 382.968 L
392.834 385.328 L
393.136 385.328 L
393.438 382.968 L
393.74 380.607 L
394.042 380.607 L
394.344 382.968 L
394.645 385.328 L
394.947 384.148 L
395.249 384.148 L
395.551 378.246 L
395.853 380.607 L
396.155 382.968 L
396.456 385.328 L
396.758 381.787 L
397.06 382.968 L
397.362 380.607 L
397.664 381.787 L
397.966 384.148 L
398.267 381.787 L
398.569 380.607 L
398.871 380.607 L
399.173 380.607 L
399.475 380.607 L
399.777 381.787 L
400.078 384.148 L
400.38 384.148 L
400.682 378.246 L
400.984 379.426 L
401.286 380.607 L
401.588 382.968 L
401.889 384.148 L
402.191 384.148 L
402.493 380.607 L
402.795 378.246 L
403.097 382.968 L
403.399 381.787 L
403.7 384.148 L
404.002 380.607 L
404.304 380.607 L
404.606 378.246 L
404.908 379.426 L
405.21 382.968 L
405.511 385.328 L
405.813 382.968 L
406.115 382.968 L
406.417 379.426 L
406.719 378.246 L
407.021 379.426 L
407.322 380.607 L
407.624 374.705 L
407.926 371.164 L
408.228 367.622 L
408.53 366.442 L
408.832 367.622 L
409.133 368.803 L
409.435 366.442 L
409.737 361.72 L
410.039 359.36 L
410.341 362.901 L
410.643 361.72 L
410.944 359.36 L
411.246 359.36 L
411.548 358.179 L
411.85 355.818 L
412.152 358.179 L
412.454 360.54 L
412.755 361.72 L
413.057 361.72 L
413.359 360.54 L
413.661 358.179 L
413.963 360.54 L
414.265 361.72 L
414.566 365.262 L
414.868 361.72 L
415.17 359.36 L
415.472 358.179 L
415.774 356.999 L
416.076 361.72 L
416.377 364.081 L
416.679 362.901 L
416.981 361.72 L
417.283 361.72 L
417.585 359.36 L
417.887 362.901 L
418.188 364.081 L
418.49 362.901 L
418.792 361.72 L
419.094 362.901 L
419.396 364.081 L
419.698 366.442 L
419.999 365.262 L
420.301 366.442 L
420.603 361.72 L
420.905 362.901 L
421.207 365.262 L
421.509 369.983 L
421.81 372.344 L
422.112 369.983 L
422.414 367.622 L
422.716 367.622 L
423.018 366.442 L
423.32 368.803 L
423.621 371.164 L
423.923 369.983 L
424.225 366.442 L
424.527 367.622 L
424.829 367.622 L
425.131 369.983 L
425.432 373.524 L
425.734 372.344 L
426.036 371.164 L
426.338 369.983 L
426.64 371.164 L
426.942 373.524 L
427.243 374.705 L
427.545 373.524 L
427.847 372.344 L
428.149 371.164 L
428.451 371.164 L
428.753 369.983 L
429.054 371.164 L
429.356 372.344 L
429.658 371.164 L
429.96 367.622 L
430.262 372.344 L
430.564 372.344 L
430.865 374.705 L
431.167 378.246 L
431.469 377.066 L
431.771 373.524 L
432.073 373.524 L
432.375 374.705 L
432.676 374.705 L
432.978 374.705 L
433.28 372.344 L
433.582 372.344 L
433.884 373.524 L
434.186 373.524 L
434.487 381.787 L
434.789 377.066 L
435.091 377.066 L
435.393 373.524 L
435.695 373.524 L
435.997 374.705 L
436.298 375.885 L
436.6 373.524 L
436.902 369.983 L
437.204 369.983 L
437.506 371.164 L
437.808 371.164 L
438.109 372.344 L
438.411 369.983 L
438.713 367.622 L
439.015 360.54 L
439.317 360.54 L
439.619 362.901 L
439.921 364.081 L
440.222 359.36 L
440.524 358.179 L
440.826 356.999 L
441.128 358.179 L
441.43 356.999 L
441.732 355.818 L
442.033 354.638 L
442.335 351.097 L
442.637 346.375 L
442.939 349.917 L
443.241 348.736 L
443.543 352.277 L
443.844 352.277 L
444.146 349.917 L
444.448 347.556 L
444.75 352.277 L
445.052 354.638 L
445.354 353.458 L
445.655 352.277 L
445.957 355.818 L
446.259 354.638 L
446.561 358.179 L
446.863 352.277 L
447.165 351.097 L
447.466 349.917 L
447.768 354.638 L
448.07 358.179 L
448.372 362.901 L
448.674 366.442 L
448.976 368.803 L
449.277 371.164 L
449.579 373.524 L
449.881 369.983 L
450.183 371.164 L
450.485 373.524 L
450.787 377.066 L
451.088 374.705 L
451.39 372.344 L
451.692 371.164 L
451.994 373.524 L
452.296 377.066 L
452.598 378.246 L
452.899 380.607 L
453.201 379.426 L
453.503 378.246 L
453.805 378.246 L
454.107 381.787 L
454.409 380.607 L
454.71 380.607 L
455.012 378.246 L
455.314 379.426 L
455.616 377.066 L
455.918 379.426 L
456.22 381.787 L
456.521 378.246 L
456.823 377.066 L
457.125 374.705 L
457.427 375.885 L
457.729 379.426 L
458.031 382.968 L
458.332 385.328 L
458.634 393.591 L
458.936 397.132 L
459.238 406.575 L
459.54 413.658 L
459.842 425.462 L
460.143 423.101 L
460.445 404.215 L
460.747 375.885 L
461.049 344.014 L
461.351 305.061 L
461.653 248.402 L
461.954 179.939 L
462.256 125.641 L
462.558 98.492 L
462.86 107.935 L
463.162 165.775 L
463.464 257.845 L
463.765 339.293 L
464.067 391.23 L
464.369 410.117 L
464.671 405.395 L
464.973 398.313 L
465.275 388.87 L
465.576 386.509 L
465.878 384.148 L
466.18 384.148 L
466.482 386.509 L
466.784 387.689 L
467.086 392.411 L
467.387 392.411 L
467.689 387.689 L
467.991 385.328 L
468.293 387.689 L
468.595 387.689 L
468.897 390.05 L
469.198 387.689 L
469.5 382.968 L
469.802 384.148 L
470.104 385.328 L
470.406 385.328 L
470.708 385.328 L
471.009 385.328 L
471.311 382.968 L
471.613 384.148 L
471.915 384.148 L
472.217 386.509 L
472.519 392.411 L
472.82 388.87 L
473.122 386.509 L
473.424 385.328 L
473.726 386.509 L
474.028 387.689 L
474.33 392.411 L
474.631 390.05 L
474.933 387.689 L
475.235 387.689 L
475.537 387.689 L
475.839 388.87 L
476.141 390.05 L
476.442 387.689 L
476.744 391.23 L
477.046 387.689 L
477.348 388.87 L
477.65 388.87 L
477.952 391.23 L
478.253 390.05 L
478.555 387.689 L
478.857 385.328 L
479.159 385.328 L
479.461 385.328 L
479.763 386.509 L
480.064 385.328 L
480.366 385.328 L
480.668 387.689 L
480.97 387.689 L
481.272 391.23 L
481.574 394.771 L
481.875 390.05 L
482.177 387.689 L
482.479 385.328 L
482.781 384.148 L
483.083 390.05 L
483.385 387.689 L
483.686 387.689 L
483.988 386.509 L
484.29 385.328 L
484.592 385.328 L
484.894 387.689 L
485.196 391.23 L
485.497 390.05 L
485.799 386.509 L
486.101 385.328 L
486.403 386.509 L
486.705 387.689 L
487.007 392.411 L
487.309 392.411 L
487.61 392.411 L
487.912 391.23 L
488.214 392.411 L
488.516 398.313 L
488.818 397.132 L
489.12 398.313 L
489.421 394.771 L
489.723 397.132 L
490.025 403.034 L
490.327 399.493 L
490.629 400.674 L
490.931 395.952 L
491.232 394.771 L
491.534 392.411 L
491.836 393.591 L
492.138 397.132 L
492.44 398.313 L
492.742 397.132 L
493.043 393.591 L
493.345 391.23 L
493.647 388.87 L
493.949 392.411 L
494.251 391.23 L
494.553 387.689 L
494.854 381.787 L
495.156 379.426 L
495.458 378.246 L
495.76 378.246 L
496.062 378.246 L
496.364 373.524 L
496.665 369.983 L
496.967 366.442 L
497.269 364.081 L
497.571 364.081 L
497.873 367.622 L
498.175 365.262 L
498.476 365.262 L
498.778 364.081 L
499.08 365.262 L
499.382 366.442 L
499.684 367.622 L
499.986 366.442 L
500.287 364.081 L
500.589 364.081 L
500.891 361.72 L
501.193 365.262 L
501.495 367.622 L
501.797 365.262 L
502.098 366.442 L
502.4 361.72 L
502.702 362.901 L
503.004 364.081 L
503.306 362.901 L
503.608 359.36 L
503.909 358.179 L
504.211 360.54 L
504.513 361.72 L
504.815 364.081 L
505.117 368.803 L
505.419 364.081 L
505.72 362.901 L
506.022 362.901 L
506.324 366.442 L
506.626 368.803 L
506.928 371.164 L
507.23 368.803 L
507.531 366.442 L
507.833 367.622 L
508.135 371.164 L
508.437 369.983 L
508.739 372.344 L
509.041 368.803 L
509.342 368.803 L
509.644 367.622 L
509.946 366.442 L
510.248 371.164 L
510.55 371.164 L
510.852 373.524 L
511.153 371.164 L
511.455 368.803 L
511.757 369.983 L
512.059 366.442 L
512.361 371.164 L
512.663 369.983 L
512.964 369.983 L
513.266 369.983 L
513.568 369.983 L
513.87 371.164 L
514.172 372.344 L
514.474 369.983 L
514.775 367.622 L
515.077 366.442 L
515.379 368.803 L
515.681 371.164 L
515.983 375.885 L
516.285 373.524 L
516.586 372.344 L
516.888 371.164 L
517.19 367.622 L
517.492 368.803 L
517.794 374.705 L
518.096 369.983 L
518.397 366.442 L
518.699 366.442 L
519.001 369.983 L
519.303 369.983 L
519.605 371.164 L
519.907 371.164 L
520.208 369.983 L
520.51 369.983 L
520.812 369.983 L
521.114 372.344 L
521.416 372.344 L
521.718 372.344 L
522.019 368.803 L
522.321 368.803 L
522.623 368.803 L
522.925 373.524 L
523.227 374.705 L
523.529 372.344 L
523.83 369.983 L
524.132 367.622 L
524.434 365.262 L
524.736 364.081 L
525.038 364.081 L
525.34 356.999 L
525.641 355.818 L
525.943 352.277 L
526.245 353.458 L
526.547 354.638 L
526.849 353.458 L
527.151 351.097 L
527.453 347.556 L
527.754 347.556 L
528.056 344.014 L
528.358 347.556 L
528.66 347.556 L
528.962 344.014 L
529.263 346.375 L
529.565 345.195 L
529.867 347.556 L
530.169 349.917 L
530.471 352.277 L
530.773 348.736 L
531.075 346.375 L
531.376 346.375 L
531.678 351.097 L
531.98 352.277 L
532.282 351.097 L
532.584 346.375 L
532.885 340.473 L
533.187 338.112 L
533.489 341.654 L
533.791 346.375 L
534.093 355.818 L
534.395 355.818 L
534.697 359.36 L
534.998 359.36 L
535.3 365.262 L
535.602 369.983 L
535.904 372.344 L
536.206 372.344 L
536.508 373.524 L
536.809 374.705 L
537.111 374.705 L
537.413 372.344 L
537.715 375.885 L
538.017 373.524 L
538.319 372.344 L
538.62 372.344 L
538.922 373.524 L
539.224 375.885 L
539.526 379.426 L
539.828 375.885 L
540.13 379.426 L
540.431 373.524 L
540.733 372.344 L
541.035 377.066 L
541.337 381.787 L
541.639 377.066 L
541.941 373.524 L
542.242 374.705 L
542.544 374.705 L
542.846 375.885 L
543.148 381.787 L
543.45 384.148 L
543.752 385.328 L
544.053 392.411 L
544.355 399.493 L
544.657 404.215 L
544.959 412.478 L
545.261 420.74 L
545.563 419.56 L
545.864 408.936 L
546.166 387.689 L
546.468 361.72 L
546.77 329.85 L
547.072 282.634 L
547.374 217.712 L
547.675 151.61 L
547.977 103.214 L
548.279 83.147 L
548.581 104.394 L
548.883 169.316 L
549.185 261.387 L
549.486 342.834 L
549.788 392.411 L
550.09 410.117 L
550.392 407.756 L
550.694 398.313 L
550.996 386.509 L
551.297 384.148 L
551.599 385.328 L
551.901 385.328 L
552.203 386.509 L
552.505 384.148 L
552.807 381.787 L
553.108 382.968 L
553.41 382.968 L
553.712 386.509 L
554.014 388.87 L
554.316 388.87 L
554.618 384.148 L
554.919 384.148 L
555.221 387.689 L
555.523 387.689 L
555.825 390.05 L
556.127 388.87 L
556.429 385.328 L
556.73 385.328 L
557.032 386.509 L
557.334 390.05 L
557.636 390.05 L
557.938 390.05 L
558.24 386.509 L
558.541 384.148 L
558.843 384.148 L
559.145 388.87 L
559.447 390.05 L
559.749 387.689 L
560.051 385.328 L
560.352 385.328 L
560.654 385.328 L
560.956 387.689 L
561.258 388.87 L
561.56 388.87 L
561.862 386.509 L
562.163 384.148 L
562.465 385.328 L
562.767 388.87 L
563.069 392.411 L
563.371 390.05 L
563.673 387.689 L
563.974 388.87 L
564.276 387.689 L
564.578 390.05 L
564.88 392.411 L
565.182 392.411 L
565.484 388.87 L
565.785 385.328 L
566.087 384.148 L
566.389 386.509 L
566.691 388.87 L
566.993 388.87 L
567.295 386.509 L
567.596 384.148 L
567.898 388.87 L
568.2 391.23 L
568.502 391.23 L
568.804 390.05 L
569.106 390.05 L
569.407 387.689 L
569.709 391.23 L
570.011 390.05 L
570.313 392.411 L
570.615 388.87 L
570.917 386.509 L
571.218 387.689 L
571.52 386.509 L
571.822 386.509 L
572.124 388.87 L
572.426 386.509 L
572.728 385.328 L
573.029 385.328 L
573.331 387.689 L
573.633 388.87 L
573.935 392.411 L
574.237 392.411 L
574.539 388.87 L
574.84 388.87 L
575.142 391.23 L
575.444 393.591 L
575.746 397.132 L
576.048 395.952 L
576.35 394.771 L
576.651 393.591 L
576.953 393.591 L
577.255 398.313 L
577.557 397.132 L
577.859 397.132 L
578.161 394.771 L
578.462 394.771 L
578.764 397.132 L
579.066 395.952 L
579.368 398.313 L
579.67 393.591 L
579.972 393.591 L
580.273 390.05 L
580.575 386.509 L
580.877 386.509 L
581.179 382.968 L
581.481 378.246 L
581.783 371.164 L
582.084 369.983 L
582.386 368.803 L
582.688 369.983 L
582.99 369.983 L
583.292 365.262 L
583.594 361.72 L
583.895 359.36 L
584.197 360.54 L
584.499 360.54 L
584.801 365.262 L
585.103 361.72 L
585.405 359.36 L
585.706 358.179 L
586.008 362.901 L
586.31 360.54 L
586.612 361.72 L
586.914 360.54 L
587.216 358.179 L
587.518 356.999 L
587.819 356.999 L
588.121 360.54 L
588.423 360.54 L
588.725 359.36 L
589.027 355.818 L
589.328 355.818 L
589.63 355.818 L
589.932 356.999 L
590.234 360.54 L
590.536 359.36 L
590.838 356.999 L
591.14 356.999 L
591.441 360.54 L
591.743 361.72 L
592.045 364.081 L
592.347 361.72 L
592.649 361.72 L
592.951 359.36 L
593.252 360.54 L
593.554 362.901 L
593.856 364.081 L
594.158 365.262 L
594.46 361.72 L
594.762 362.901 L
595.063 364.081 L
595.365 365.262 L
595.667 368.803 L
595.969 368.803 L
596.271 366.442 L
596.573 365.262 L
596.874 366.442 L
597.176 366.442 L
597.478 368.803 L
597.78 367.622 L
598.082 365.262 L
598.384 367.622 L
598.685 366.442 L
598.987 369.983 L
599.289 369.983 L
599.591 367.622 L
599.893 365.262 L
600.195 365.262 L
600.496 365.262 L
600.798 369.983 L
601.1 371.164 L
601.402 369.983 L
601.704 367.622 L
602.006 368.803 L
602.307 368.803 L
602.609 369.983 L
602.911 371.164 L
603.213 369.983 L
603.515 368.803 L
603.817 368.803 L
604.118 367.622 L
604.42 368.803 L
604.722 369.983 L
605.024 368.803 L
605.326 366.442 L
605.628 364.081 L
605.929 368.803 L
606.231 366.442 L
606.533 371.164 L
606.835 369.983 L
607.137 365.262 L
607.439 367.622 L
607.74 369.983 L
608.042 369.983 L
608.344 371.164 L
608.646 369.983 L
608.948 369.983 L
609.25 367.622 L
609.551 367.622 L
609.853 369.983 L
610.155 369.983 L
610.457 368.803 L
610.759 366.442 L
611.061 366.442 L
611.362 366.442 L
611.664 369.983 L
611.966 369.983 L
612.268 367.622 L
612.57 366.442 L
612.872 364.081 L
613.173 364.081 L
613.475 361.72 L
613.777 366.442 L
614.079 362.901 L
614.381 356.999 L
614.683 352.277 L
614.984 352.277 L
615.286 353.458 L
615.588 354.638 L
615.89 352.277 L
616.192 347.556 L
616.494 346.375 L
616.795 345.195 L
617.097 344.014 L
617.399 344.014 L
617.701 342.834 L
618.003 339.293 L
618.305 340.473 L
618.606 340.473 L
618.908 345.195 L
619.21 347.556 L
619.512 348.736 L
619.814 346.375 L
620.116 342.834 L
620.417 348.736 L
620.719 348.736 L
621.021 351.097 L
621.323 347.556 L
621.625 341.654 L
621.927 339.293 L
622.228 344.014 L
622.53 352.277 L
622.832 356.999 L
623.134 359.36 L
623.436 362.901 L
623.738 364.081 L
624.039 367.622 L
624.341 369.983 L
624.643 368.803 L
624.945 367.622 L
625.247 369.983 L
625.549 369.983 L
625.85 371.164 L
626.152 372.344 L
626.454 373.524 L
626.756 372.344 L
627.058 371.164 L
627.36 367.622 L
627.661 368.803 L
627.963 371.164 L
628.265 373.524 L
628.567 373.524 L
628.869 373.524 L
629.171 371.164 L
629.472 372.344 L
629.774 373.524 L
630.076 375.885 L
630.378 372.344 L
630.68 372.344 L
630.982 372.344 L
631.284 372.344 L
631.585 373.524 L
631.887 375.885 L
632.189 378.246 L
632.491 379.426 L
632.793 387.689 L
633.094 397.132 L
633.396 405.395 L
633.698 408.936 L
634 414.838 L
S
GR
%%Trailer
%%Pages: 1
%%EOF
